<?xml version="1.0" encoding="UTF-8"?>
<COLLADA xmlns="http://www.collada.org/2008/03/COLLADASchema" version="1.5.0">
	<asset>
		<contributor>
			<authoring_tool>URDF Collada Writer</authoring_tool>
		</contributor>
		<created>2022-02-15T16:50:55.000000</created>
		<modified>2022-02-15T16:50:55.000000</modified>
		<unit/>
		<up_axis>Z_UP</up_axis>
	</asset>
	<library_visual_scenes id="vscenes">
		<visual_scene id="vscene" name="URDF Visual Scene">
			<node id="visual0" name="lbr_iiwa7_r800" sid="visual0">
				<node id="vkmodel0_node0" name="base_link" sid="node0">
					<translate>0 0 0</translate>
					<rotate>1 0 0 0</rotate>
					<instance_geometry url="#gkmodel0_base_link_geom0">
						<bind_material>
							<technique_common>
								<instance_material symbol="mat0" target="#gkmodel0_base_link_geom0_mat"/>
							</technique_common>
						</bind_material>
					</instance_geometry>
					<node id="vkmodel0_node1" name="link1" sid="node1">
						<translate>-0 -0 -0</translate>
						<rotate>1 0 0 0</rotate>
						<translate>0 0 0.3375</translate>
						<rotate>1 0 0 0</rotate>
						<rotate sid="node_joint1_axis0">0 0 -1 0</rotate>
						<translate>0 0 0</translate>
						<rotate>1 0 0 0</rotate>
						<instance_geometry url="#gkmodel0_link1_geom0">
							<bind_material>
								<technique_common>
									<instance_material symbol="mat0" target="#gkmodel0_link1_geom0_mat"/>
								</technique_common>
							</bind_material>
						</instance_geometry>
						<node id="vkmodel0_node2" name="link2" sid="node2">
							<translate>-0 -0 -0</translate>
							<rotate>1 0 0 0</rotate>
							<translate>0 0 0</translate>
							<rotate>-1 0 0 90.0002104591497</rotate>
							<rotate sid="node_joint2_axis0">0 0 1 0</rotate>
							<translate>0 0 0</translate>
							<rotate>1 0 0 0</rotate>
							<instance_geometry url="#gkmodel0_link2_geom0">
								<bind_material>
									<technique_common>
										<instance_material symbol="mat0" target="#gkmodel0_link2_geom0_mat"/>
									</technique_common>
								</bind_material>
							</instance_geometry>
							<node id="vkmodel0_node3" name="link3" sid="node3">
								<translate>-0 -0 -0</translate>
								<rotate>1 0 0 0</rotate>
								<translate>0 -0.3993 0</translate>
								<rotate>1 0 0 90.0002104591497</rotate>
								<rotate sid="node_joint3_axis0">0 0 -1 0</rotate>
								<translate>0 0 0</translate>
								<rotate>1 0 0 0</rotate>
								<instance_geometry url="#gkmodel0_link3_geom0">
									<bind_material>
										<technique_common>
											<instance_material symbol="mat0" target="#gkmodel0_link3_geom0_mat"/>
										</technique_common>
									</bind_material>
								</instance_geometry>
								<node id="vkmodel0_node4" name="link4" sid="node4">
									<translate>-0 -0 -0</translate>
									<rotate>1 0 0 0</rotate>
									<translate>0 0 0</translate>
									<rotate>-1 0 0 90.0002104591497</rotate>
									<rotate sid="node_joint4_axis0">0 0 -1 0</rotate>
									<translate>0 0 0</translate>
									<rotate>1 0 0 0</rotate>
									<instance_geometry url="#gkmodel0_link4_geom0">
										<bind_material>
											<technique_common>
												<instance_material symbol="mat0" target="#gkmodel0_link4_geom0_mat"/>
											</technique_common>
										</bind_material>
									</instance_geometry>
									<node id="vkmodel0_node5" name="link5" sid="node5">
										<translate>-0 -0 -0</translate>
										<rotate>1 0 0 0</rotate>
										<translate>0 -0.3993 0</translate>
										<rotate>1 0 0 90.0002104591497</rotate>
										<rotate sid="node_joint5_axis0">0 0 -1 0</rotate>
										<translate>0 0 0</translate>
										<rotate>1 0 0 0</rotate>
										<instance_geometry url="#gkmodel0_link5_geom0">
											<bind_material>
												<technique_common>
													<instance_material symbol="mat0" target="#gkmodel0_link5_geom0_mat"/>
												</technique_common>
											</bind_material>
										</instance_geometry>
										<node id="vkmodel0_node6" name="link6" sid="node6">
											<translate>-0 -0 -0</translate>
											<rotate>1 0 0 0</rotate>
											<translate>0 0 0</translate>
											<rotate>-1 0 0 90.0002104591497</rotate>
											<rotate sid="node_joint6_axis0">0 0 1 0</rotate>
											<translate>0 0 0</translate>
											<rotate>1 0 0 0</rotate>
											<instance_geometry url="#gkmodel0_link6_geom0">
												<bind_material>
													<technique_common>
														<instance_material symbol="mat0" target="#gkmodel0_link6_geom0_mat"/>
													</technique_common>
												</bind_material>
											</instance_geometry>
											<node id="vkmodel0_node7" name="link7" sid="node7">
												<translate>-0 -0 -0</translate>
												<rotate>1 0 0 0</rotate>
												<translate>0 -0.126 0</translate>
												<rotate>1 0 0 90.0002104591497</rotate>
												<rotate sid="node_joint7_axis0">0 0 1 0</rotate>
												<translate>0 0 0</translate>
												<rotate>1 0 0 0</rotate>
												<instance_geometry url="#gkmodel0_link7_geom0">
													<bind_material>
														<technique_common>
															<instance_material symbol="mat0" target="#gkmodel0_link7_geom0_mat"/>
														</technique_common>
													</bind_material>
												</instance_geometry>
											</node>
										</node>
									</node>
								</node>
							</node>
						</node>
					</node>
				</node>
			</node>
		</visual_scene>
	</library_visual_scenes>
	<library_geometries id="geometries">
		<geometry id="gkmodel0_base_link_geom0" name="/lbr_iiwa7_r800-urdf-package/meshes/base_link.DAE"/>
		<geometry id="gkmodel0_link1_geom0" name="/lbr_iiwa7_r800-urdf-package/meshes/link1.DAE"/>
		<geometry id="gkmodel0_link2_geom0" name="/lbr_iiwa7_r800-urdf-package/meshes/link2.DAE"/>
		<geometry id="gkmodel0_link3_geom0" name="/lbr_iiwa7_r800-urdf-package/meshes/link3.DAE"/>
		<geometry id="gkmodel0_link4_geom0" name="/lbr_iiwa7_r800-urdf-package/meshes/link4.DAE"/>
		<geometry id="gkmodel0_link5_geom0" name="/lbr_iiwa7_r800-urdf-package/meshes/link5.DAE"/>
		<geometry id="gkmodel0_link6_geom0" name="/lbr_iiwa7_r800-urdf-package/meshes/link6.DAE"/>
		<geometry id="gkmodel0_link7_geom0" name="/lbr_iiwa7_r800-urdf-package/meshes/link7.DAE"/>
	</library_geometries>
	<library_effects id="effects">
		<effect id="gkmodel0_base_link_geom0">
			<profile_COMMON>
				<technique sid="">
					<phong>
						<ambient>
							<color>0.6470588445663452 0.6196078658103943 0.5882353186607361 1</color>
						</ambient>
						<diffuse>
							<color>0.6470588445663452 0.6196078658103943 0.5882353186607361 1</color>
						</diffuse>
					</phong>
				</technique>
			</profile_COMMON>
		</effect>
		<effect id="gkmodel0_base_link_geom0_eff">
			<profile_COMMON>
				<technique sid="">
					<phong>
						<ambient>
							<color>0.6470588445663452 0.6196078658103943 0.5882353186607361 1</color>
						</ambient>
						<diffuse>
							<color>0.6470588445663452 0.6196078658103943 0.5882353186607361 1</color>
						</diffuse>
					</phong>
				</technique>
			</profile_COMMON>
		</effect>
		<effect id="gkmodel0_link1_geom0">
			<profile_COMMON>
				<technique sid="">
					<phong>
						<ambient>
							<color>0.6470588445663452 0.6196078658103943 0.5882353186607361 1</color>
						</ambient>
						<diffuse>
							<color>0.6470588445663452 0.6196078658103943 0.5882353186607361 1</color>
						</diffuse>
					</phong>
				</technique>
			</profile_COMMON>
		</effect>
		<effect id="gkmodel0_link1_geom0_eff">
			<profile_COMMON>
				<technique sid="">
					<phong>
						<ambient>
							<color>0.6470588445663452 0.6196078658103943 0.5882353186607361 1</color>
						</ambient>
						<diffuse>
							<color>0.6470588445663452 0.6196078658103943 0.5882353186607361 1</color>
						</diffuse>
					</phong>
				</technique>
			</profile_COMMON>
		</effect>
		<effect id="gkmodel0_link2_geom0">
			<profile_COMMON>
				<technique sid="">
					<phong>
						<ambient>
							<color>0.6470588445663452 0.6196078658103943 0.5882353186607361 1</color>
						</ambient>
						<diffuse>
							<color>0.6470588445663452 0.6196078658103943 0.5882353186607361 1</color>
						</diffuse>
					</phong>
				</technique>
			</profile_COMMON>
		</effect>
		<effect id="gkmodel0_link2_geom0_eff">
			<profile_COMMON>
				<technique sid="">
					<phong>
						<ambient>
							<color>0.6470588445663452 0.6196078658103943 0.5882353186607361 1</color>
						</ambient>
						<diffuse>
							<color>0.6470588445663452 0.6196078658103943 0.5882353186607361 1</color>
						</diffuse>
					</phong>
				</technique>
			</profile_COMMON>
		</effect>
		<effect id="gkmodel0_link3_geom0">
			<profile_COMMON>
				<technique sid="">
					<phong>
						<ambient>
							<color>0.6470588445663452 0.6196078658103943 0.5882353186607361 1</color>
						</ambient>
						<diffuse>
							<color>0.6470588445663452 0.6196078658103943 0.5882353186607361 1</color>
						</diffuse>
					</phong>
				</technique>
			</profile_COMMON>
		</effect>
		<effect id="gkmodel0_link3_geom0_eff">
			<profile_COMMON>
				<technique sid="">
					<phong>
						<ambient>
							<color>0.6470588445663452 0.6196078658103943 0.5882353186607361 1</color>
						</ambient>
						<diffuse>
							<color>0.6470588445663452 0.6196078658103943 0.5882353186607361 1</color>
						</diffuse>
					</phong>
				</technique>
			</profile_COMMON>
		</effect>
		<effect id="gkmodel0_link4_geom0">
			<profile_COMMON>
				<technique sid="">
					<phong>
						<ambient>
							<color>0.6470588445663452 0.6196078658103943 0.5882353186607361 1</color>
						</ambient>
						<diffuse>
							<color>0.6470588445663452 0.6196078658103943 0.5882353186607361 1</color>
						</diffuse>
					</phong>
				</technique>
			</profile_COMMON>
		</effect>
		<effect id="gkmodel0_link4_geom0_eff">
			<profile_COMMON>
				<technique sid="">
					<phong>
						<ambient>
							<color>0.6470588445663452 0.6196078658103943 0.5882353186607361 1</color>
						</ambient>
						<diffuse>
							<color>0.6470588445663452 0.6196078658103943 0.5882353186607361 1</color>
						</diffuse>
					</phong>
				</technique>
			</profile_COMMON>
		</effect>
		<effect id="gkmodel0_link5_geom0">
			<profile_COMMON>
				<technique sid="">
					<phong>
						<ambient>
							<color>0.6470588445663452 0.6196078658103943 0.5882353186607361 1</color>
						</ambient>
						<diffuse>
							<color>0.6470588445663452 0.6196078658103943 0.5882353186607361 1</color>
						</diffuse>
					</phong>
				</technique>
			</profile_COMMON>
		</effect>
		<effect id="gkmodel0_link5_geom0_eff">
			<profile_COMMON>
				<technique sid="">
					<phong>
						<ambient>
							<color>0.6470588445663452 0.6196078658103943 0.5882353186607361 1</color>
						</ambient>
						<diffuse>
							<color>0.6470588445663452 0.6196078658103943 0.5882353186607361 1</color>
						</diffuse>
					</phong>
				</technique>
			</profile_COMMON>
		</effect>
		<effect id="gkmodel0_link6_geom0">
			<profile_COMMON>
				<technique sid="">
					<phong>
						<ambient>
							<color>0.6470588445663452 0.6196078658103943 0.5882353186607361 1</color>
						</ambient>
						<diffuse>
							<color>0.6470588445663452 0.6196078658103943 0.5882353186607361 1</color>
						</diffuse>
					</phong>
				</technique>
			</profile_COMMON>
		</effect>
		<effect id="gkmodel0_link6_geom0_eff">
			<profile_COMMON>
				<technique sid="">
					<phong>
						<ambient>
							<color>0.6470588445663452 0.6196078658103943 0.5882353186607361 1</color>
						</ambient>
						<diffuse>
							<color>0.6470588445663452 0.6196078658103943 0.5882353186607361 1</color>
						</diffuse>
					</phong>
				</technique>
			</profile_COMMON>
		</effect>
		<effect id="gkmodel0_link7_geom0">
			<profile_COMMON>
				<technique sid="">
					<phong>
						<ambient>
							<color>0.6470588445663452 0.6196078658103943 0.5882353186607361 1</color>
						</ambient>
						<diffuse>
							<color>0.6470588445663452 0.6196078658103943 0.5882353186607361 1</color>
						</diffuse>
					</phong>
				</technique>
			</profile_COMMON>
		</effect>
		<effect id="gkmodel0_link7_geom0_eff">
			<profile_COMMON>
				<technique sid="">
					<phong>
						<ambient>
							<color>0.6470588445663452 0.6196078658103943 0.5882353186607361 1</color>
						</ambient>
						<diffuse>
							<color>0.6470588445663452 0.6196078658103943 0.5882353186607361 1</color>
						</diffuse>
					</phong>
				</technique>
			</profile_COMMON>
		</effect>
	</library_effects>
	<library_materials id="materials">
		<material id="gkmodel0_base_link_geom0_mat">
			<instance_effect url="#gkmodel0_base_link_geom0_eff"/>
		</material>
		<material id="gkmodel0_base_link_geom0_mat">
			<instance_effect url="#gkmodel0_base_link_geom0"/>
		</material>
		<material id="gkmodel0_link1_geom0_mat">
			<instance_effect url="#gkmodel0_link1_geom0_eff"/>
		</material>
		<material id="gkmodel0_link1_geom0_mat">
			<instance_effect url="#gkmodel0_link1_geom0"/>
		</material>
		<material id="gkmodel0_link2_geom0_mat">
			<instance_effect url="#gkmodel0_link2_geom0_eff"/>
		</material>
		<material id="gkmodel0_link2_geom0_mat">
			<instance_effect url="#gkmodel0_link2_geom0"/>
		</material>
		<material id="gkmodel0_link3_geom0_mat">
			<instance_effect url="#gkmodel0_link3_geom0_eff"/>
		</material>
		<material id="gkmodel0_link3_geom0_mat">
			<instance_effect url="#gkmodel0_link3_geom0"/>
		</material>
		<material id="gkmodel0_link4_geom0_mat">
			<instance_effect url="#gkmodel0_link4_geom0_eff"/>
		</material>
		<material id="gkmodel0_link4_geom0_mat">
			<instance_effect url="#gkmodel0_link4_geom0"/>
		</material>
		<material id="gkmodel0_link5_geom0_mat">
			<instance_effect url="#gkmodel0_link5_geom0_eff"/>
		</material>
		<material id="gkmodel0_link5_geom0_mat">
			<instance_effect url="#gkmodel0_link5_geom0"/>
		</material>
		<material id="gkmodel0_link6_geom0_mat">
			<instance_effect url="#gkmodel0_link6_geom0_eff"/>
		</material>
		<material id="gkmodel0_link6_geom0_mat">
			<instance_effect url="#gkmodel0_link6_geom0"/>
		</material>
		<material id="gkmodel0_link7_geom0_mat">
			<instance_effect url="#gkmodel0_link7_geom0_eff"/>
		</material>
		<material id="gkmodel0_link7_geom0_mat">
			<instance_effect url="#gkmodel0_link7_geom0"/>
		</material>
	</library_materials>
	<library_kinematics_models id="kmodels">
		<kinematics_model id="kmodel0" name="lbr_iiwa7_r800">
			<technique_common>
				<joint name="joint1" sid="joint1">
					<revolute sid="axis0">
						<axis>0 0 -1</axis>
						<limits>
							<min>-170.1684651538545</min>
							<max>170.1684651538545</max>
						</limits>
					</revolute>
				</joint>
				<joint name="joint2" sid="joint2">
					<revolute sid="axis0">
						<axis>0 0 1</axis>
						<limits>
							<min>-119.748179182342</min>
							<max>119.748179182342</max>
						</limits>
					</revolute>
				</joint>
				<joint name="joint3" sid="joint3">
					<revolute sid="axis0">
						<axis>0 0 -1</axis>
						<limits>
							<min>-170.1684651538545</min>
							<max>170.1684651538545</max>
						</limits>
					</revolute>
				</joint>
				<joint name="joint4" sid="joint4">
					<revolute sid="axis0">
						<axis>0 0 -1</axis>
						<limits>
							<min>-119.748179182342</min>
							<max>119.748179182342</max>
						</limits>
					</revolute>
				</joint>
				<joint name="joint5" sid="joint5">
					<revolute sid="axis0">
						<axis>0 0 -1</axis>
						<limits>
							<min>-170.1684651538545</min>
							<max>170.1684651538545</max>
						</limits>
					</revolute>
				</joint>
				<joint name="joint6" sid="joint6">
					<revolute sid="axis0">
						<axis>0 0 1</axis>
						<limits>
							<min>-119.748179182342</min>
							<max>119.748179182342</max>
						</limits>
					</revolute>
				</joint>
				<joint name="joint7" sid="joint7">
					<revolute sid="axis0">
						<axis>0 0 1</axis>
						<limits>
							<min>-174.7521275149011</min>
							<max>174.7521275149011</max>
						</limits>
					</revolute>
				</joint>
				<link sid="base_link" name="base_link">
					<attachment_full joint="kmodel0/joint1">
						<translate>0 0 0.3375</translate>
						<rotate>1 0 0 0</rotate>
						<link sid="link1" name="link1">
							<attachment_full joint="kmodel0/joint2">
								<translate>0 0 0</translate>
								<rotate>-1 0 0 90.0002104591497</rotate>
								<link sid="link2" name="link2">
									<attachment_full joint="kmodel0/joint3">
										<translate>0 -0.3993 0</translate>
										<rotate>1 0 0 90.0002104591497</rotate>
										<link sid="link3" name="link3">
											<attachment_full joint="kmodel0/joint4">
												<translate>0 0 0</translate>
												<rotate>-1 0 0 90.0002104591497</rotate>
												<link sid="link4" name="link4">
													<attachment_full joint="kmodel0/joint5">
														<translate>0 -0.3993 0</translate>
														<rotate>1 0 0 90.0002104591497</rotate>
														<link sid="link5" name="link5">
															<attachment_full joint="kmodel0/joint6">
																<translate>0 0 0</translate>
																<rotate>-1 0 0 90.0002104591497</rotate>
																<link sid="link6" name="link6">
																	<attachment_full joint="kmodel0/joint7">
																		<translate>0 -0.126 0</translate>
																		<rotate>1 0 0 90.0002104591497</rotate>
																		<link sid="link7" name="link7"/>
																	</attachment_full>
																</link>
															</attachment_full>
														</link>
													</attachment_full>
												</link>
											</attachment_full>
										</link>
									</attachment_full>
								</link>
							</attachment_full>
						</link>
					</attachment_full>
				</link>
			</technique_common>
		</kinematics_model>
	</library_kinematics_models>
	<library_articulated_systems id="asystems">
		<articulated_system id="robot0_motion">
			<motion>
				<instance_articulated_system url="#robot0_kinematics">
					<newparam sid="robot0_motion_kmodel0_inst">
						<SIDREF>robot0_kinematics/robot0_kinematics_kmodel0_inst</SIDREF>
					</newparam>
					<newparam sid="robot0_motion_robot0_kinematics_kmodel0_inst_joint1_axis0">
						<SIDREF>robot0_kinematics/robot0_kinematics_kmodel0_inst_joint1_axis0</SIDREF>
					</newparam>
					<newparam sid="robot0_motion_robot0_kinematics_kmodel0_inst_joint1_axis0_value">
						<SIDREF>robot0_kinematics/robot0_kinematics_kmodel0_inst_joint1_axis0_value</SIDREF>
					</newparam>
					<newparam sid="robot0_motion_robot0_kinematics_kmodel0_inst_joint2_axis0">
						<SIDREF>robot0_kinematics/robot0_kinematics_kmodel0_inst_joint2_axis0</SIDREF>
					</newparam>
					<newparam sid="robot0_motion_robot0_kinematics_kmodel0_inst_joint2_axis0_value">
						<SIDREF>robot0_kinematics/robot0_kinematics_kmodel0_inst_joint2_axis0_value</SIDREF>
					</newparam>
					<newparam sid="robot0_motion_robot0_kinematics_kmodel0_inst_joint3_axis0">
						<SIDREF>robot0_kinematics/robot0_kinematics_kmodel0_inst_joint3_axis0</SIDREF>
					</newparam>
					<newparam sid="robot0_motion_robot0_kinematics_kmodel0_inst_joint3_axis0_value">
						<SIDREF>robot0_kinematics/robot0_kinematics_kmodel0_inst_joint3_axis0_value</SIDREF>
					</newparam>
					<newparam sid="robot0_motion_robot0_kinematics_kmodel0_inst_joint4_axis0">
						<SIDREF>robot0_kinematics/robot0_kinematics_kmodel0_inst_joint4_axis0</SIDREF>
					</newparam>
					<newparam sid="robot0_motion_robot0_kinematics_kmodel0_inst_joint4_axis0_value">
						<SIDREF>robot0_kinematics/robot0_kinematics_kmodel0_inst_joint4_axis0_value</SIDREF>
					</newparam>
					<newparam sid="robot0_motion_robot0_kinematics_kmodel0_inst_joint5_axis0">
						<SIDREF>robot0_kinematics/robot0_kinematics_kmodel0_inst_joint5_axis0</SIDREF>
					</newparam>
					<newparam sid="robot0_motion_robot0_kinematics_kmodel0_inst_joint5_axis0_value">
						<SIDREF>robot0_kinematics/robot0_kinematics_kmodel0_inst_joint5_axis0_value</SIDREF>
					</newparam>
					<newparam sid="robot0_motion_robot0_kinematics_kmodel0_inst_joint6_axis0">
						<SIDREF>robot0_kinematics/robot0_kinematics_kmodel0_inst_joint6_axis0</SIDREF>
					</newparam>
					<newparam sid="robot0_motion_robot0_kinematics_kmodel0_inst_joint6_axis0_value">
						<SIDREF>robot0_kinematics/robot0_kinematics_kmodel0_inst_joint6_axis0_value</SIDREF>
					</newparam>
					<newparam sid="robot0_motion_robot0_kinematics_kmodel0_inst_joint7_axis0">
						<SIDREF>robot0_kinematics/robot0_kinematics_kmodel0_inst_joint7_axis0</SIDREF>
					</newparam>
					<newparam sid="robot0_motion_robot0_kinematics_kmodel0_inst_joint7_axis0_value">
						<SIDREF>robot0_kinematics/robot0_kinematics_kmodel0_inst_joint7_axis0_value</SIDREF>
					</newparam>
				</instance_articulated_system>
				<technique_common>
					<axis_info axis="robot0_kinematics/axis_info_inst0">
						<speed>
							<float>1.71</float>
						</speed>
						<acceleration>
							<float>176</float>
						</acceleration>
					</axis_info>
					<axis_info axis="robot0_kinematics/axis_info_inst1">
						<speed>
							<float>1.71</float>
						</speed>
						<acceleration>
							<float>176</float>
						</acceleration>
					</axis_info>
					<axis_info axis="robot0_kinematics/axis_info_inst2">
						<speed>
							<float>1.75</float>
						</speed>
						<acceleration>
							<float>110</float>
						</acceleration>
					</axis_info>
					<axis_info axis="robot0_kinematics/axis_info_inst3">
						<speed>
							<float>2.27</float>
						</speed>
						<acceleration>
							<float>110</float>
						</acceleration>
					</axis_info>
					<axis_info axis="robot0_kinematics/axis_info_inst4">
						<speed>
							<float>2.44</float>
						</speed>
						<acceleration>
							<float>110</float>
						</acceleration>
					</axis_info>
					<axis_info axis="robot0_kinematics/axis_info_inst5">
						<speed>
							<float>3.14</float>
						</speed>
						<acceleration>
							<float>40</float>
						</acceleration>
					</axis_info>
					<axis_info axis="robot0_kinematics/axis_info_inst6">
						<speed>
							<float>3.14</float>
						</speed>
						<acceleration>
							<float>40</float>
						</acceleration>
					</axis_info>
				</technique_common>
			</motion>
		</articulated_system>
		<articulated_system id="robot0_kinematics">
			<kinematics>
				<instance_kinematics_model url="#kmodel0" sid="kmodel0_inst">
					<newparam sid="robot0_kinematics_kmodel0_inst">
						<SIDREF>robot0_kinematics/kmodel0_inst</SIDREF>
					</newparam>
					<newparam sid="robot0_kinematics_kmodel0_inst_joint1_axis0">
						<SIDREF>robot0_kinematics/kmodel0_inst/joint1/axis0</SIDREF>
					</newparam>
					<newparam sid="robot0_kinematics_kmodel0_inst_joint1_axis0_value">
						<float>0</float>
					</newparam>
					<newparam sid="robot0_kinematics_kmodel0_inst_joint2_axis0">
						<SIDREF>robot0_kinematics/kmodel0_inst/joint2/axis0</SIDREF>
					</newparam>
					<newparam sid="robot0_kinematics_kmodel0_inst_joint2_axis0_value">
						<float>0</float>
					</newparam>
					<newparam sid="robot0_kinematics_kmodel0_inst_joint3_axis0">
						<SIDREF>robot0_kinematics/kmodel0_inst/joint3/axis0</SIDREF>
					</newparam>
					<newparam sid="robot0_kinematics_kmodel0_inst_joint3_axis0_value">
						<float>0</float>
					</newparam>
					<newparam sid="robot0_kinematics_kmodel0_inst_joint4_axis0">
						<SIDREF>robot0_kinematics/kmodel0_inst/joint4/axis0</SIDREF>
					</newparam>
					<newparam sid="robot0_kinematics_kmodel0_inst_joint4_axis0_value">
						<float>0</float>
					</newparam>
					<newparam sid="robot0_kinematics_kmodel0_inst_joint5_axis0">
						<SIDREF>robot0_kinematics/kmodel0_inst/joint5/axis0</SIDREF>
					</newparam>
					<newparam sid="robot0_kinematics_kmodel0_inst_joint5_axis0_value">
						<float>0</float>
					</newparam>
					<newparam sid="robot0_kinematics_kmodel0_inst_joint6_axis0">
						<SIDREF>robot0_kinematics/kmodel0_inst/joint6/axis0</SIDREF>
					</newparam>
					<newparam sid="robot0_kinematics_kmodel0_inst_joint6_axis0_value">
						<float>0</float>
					</newparam>
					<newparam sid="robot0_kinematics_kmodel0_inst_joint7_axis0">
						<SIDREF>robot0_kinematics/kmodel0_inst/joint7/axis0</SIDREF>
					</newparam>
					<newparam sid="robot0_kinematics_kmodel0_inst_joint7_axis0_value">
						<float>0</float>
					</newparam>
				</instance_kinematics_model>
				<technique_common>
					<axis_info sid="axis_info_inst0" axis="kmodel0/joint1/axis0">
						<active>
							<bool>true</bool>
						</active>
						<locked>
							<bool>false</bool>
						</locked>
						<limits>
							<min>
								<float>-170.1684651538545</float>
							</min>
							<max>
								<float>170.1684651538545</float>
							</max>
						</limits>
					</axis_info>
					<axis_info sid="axis_info_inst1" axis="kmodel0/joint2/axis0">
						<active>
							<bool>true</bool>
						</active>
						<locked>
							<bool>false</bool>
						</locked>
						<limits>
							<min>
								<float>-119.748179182342</float>
							</min>
							<max>
								<float>119.748179182342</float>
							</max>
						</limits>
					</axis_info>
					<axis_info sid="axis_info_inst2" axis="kmodel0/joint3/axis0">
						<active>
							<bool>true</bool>
						</active>
						<locked>
							<bool>false</bool>
						</locked>
						<limits>
							<min>
								<float>-170.1684651538545</float>
							</min>
							<max>
								<float>170.1684651538545</float>
							</max>
						</limits>
					</axis_info>
					<axis_info sid="axis_info_inst3" axis="kmodel0/joint4/axis0">
						<active>
							<bool>true</bool>
						</active>
						<locked>
							<bool>false</bool>
						</locked>
						<limits>
							<min>
								<float>-119.748179182342</float>
							</min>
							<max>
								<float>119.748179182342</float>
							</max>
						</limits>
					</axis_info>
					<axis_info sid="axis_info_inst4" axis="kmodel0/joint5/axis0">
						<active>
							<bool>true</bool>
						</active>
						<locked>
							<bool>false</bool>
						</locked>
						<limits>
							<min>
								<float>-170.1684651538545</float>
							</min>
							<max>
								<float>170.1684651538545</float>
							</max>
						</limits>
					</axis_info>
					<axis_info sid="axis_info_inst5" axis="kmodel0/joint6/axis0">
						<active>
							<bool>true</bool>
						</active>
						<locked>
							<bool>false</bool>
						</locked>
						<limits>
							<min>
								<float>-119.748179182342</float>
							</min>
							<max>
								<float>119.748179182342</float>
							</max>
						</limits>
					</axis_info>
					<axis_info sid="axis_info_inst6" axis="kmodel0/joint7/axis0">
						<active>
							<bool>true</bool>
						</active>
						<locked>
							<bool>false</bool>
						</locked>
						<limits>
							<min>
								<float>-174.7521275149011</float>
							</min>
							<max>
								<float>174.7521275149011</float>
							</max>
						</limits>
					</axis_info>
				</technique_common>
			</kinematics>
		</articulated_system>
	</library_articulated_systems>
	<library_kinematics_scenes id="kscenes">
		<kinematics_scene id="kscene" name="URDF Kinematics Scene">
			<instance_articulated_system sid="robot0_motion_inst" url="#robot0_motion" name="lbr_iiwa7_r800">
				<bind symbol="kscene_kmodel0_inst">
					<param ref="robot0_motion/robot0_motion_kmodel0_inst"/>
				</bind>
				<bind symbol="kscene_kmodel0_inst_robot0_kinematics_kmodel0_inst_joint1_axis0">
					<param ref="robot0_motion/robot0_motion_robot0_kinematics_kmodel0_inst_joint1_axis0"/>
				</bind>
				<bind symbol="kscene_kmodel0_inst_robot0_kinematics_kmodel0_inst_joint1_axis0_value">
					<param ref="robot0_motion/robot0_motion_robot0_kinematics_kmodel0_inst_joint1_axis0_value"/>
				</bind>
				<bind symbol="kscene_kmodel0_inst_robot0_kinematics_kmodel0_inst_joint2_axis0">
					<param ref="robot0_motion/robot0_motion_robot0_kinematics_kmodel0_inst_joint2_axis0"/>
				</bind>
				<bind symbol="kscene_kmodel0_inst_robot0_kinematics_kmodel0_inst_joint2_axis0_value">
					<param ref="robot0_motion/robot0_motion_robot0_kinematics_kmodel0_inst_joint2_axis0_value"/>
				</bind>
				<bind symbol="kscene_kmodel0_inst_robot0_kinematics_kmodel0_inst_joint3_axis0">
					<param ref="robot0_motion/robot0_motion_robot0_kinematics_kmodel0_inst_joint3_axis0"/>
				</bind>
				<bind symbol="kscene_kmodel0_inst_robot0_kinematics_kmodel0_inst_joint3_axis0_value">
					<param ref="robot0_motion/robot0_motion_robot0_kinematics_kmodel0_inst_joint3_axis0_value"/>
				</bind>
				<bind symbol="kscene_kmodel0_inst_robot0_kinematics_kmodel0_inst_joint4_axis0">
					<param ref="robot0_motion/robot0_motion_robot0_kinematics_kmodel0_inst_joint4_axis0"/>
				</bind>
				<bind symbol="kscene_kmodel0_inst_robot0_kinematics_kmodel0_inst_joint4_axis0_value">
					<param ref="robot0_motion/robot0_motion_robot0_kinematics_kmodel0_inst_joint4_axis0_value"/>
				</bind>
				<bind symbol="kscene_kmodel0_inst_robot0_kinematics_kmodel0_inst_joint5_axis0">
					<param ref="robot0_motion/robot0_motion_robot0_kinematics_kmodel0_inst_joint5_axis0"/>
				</bind>
				<bind symbol="kscene_kmodel0_inst_robot0_kinematics_kmodel0_inst_joint5_axis0_value">
					<param ref="robot0_motion/robot0_motion_robot0_kinematics_kmodel0_inst_joint5_axis0_value"/>
				</bind>
				<bind symbol="kscene_kmodel0_inst_robot0_kinematics_kmodel0_inst_joint6_axis0">
					<param ref="robot0_motion/robot0_motion_robot0_kinematics_kmodel0_inst_joint6_axis0"/>
				</bind>
				<bind symbol="kscene_kmodel0_inst_robot0_kinematics_kmodel0_inst_joint6_axis0_value">
					<param ref="robot0_motion/robot0_motion_robot0_kinematics_kmodel0_inst_joint6_axis0_value"/>
				</bind>
				<bind symbol="kscene_kmodel0_inst_robot0_kinematics_kmodel0_inst_joint7_axis0">
					<param ref="robot0_motion/robot0_motion_robot0_kinematics_kmodel0_inst_joint7_axis0"/>
				</bind>
				<bind symbol="kscene_kmodel0_inst_robot0_kinematics_kmodel0_inst_joint7_axis0_value">
					<param ref="robot0_motion/robot0_motion_robot0_kinematics_kmodel0_inst_joint7_axis0_value"/>
				</bind>
			</instance_articulated_system>
		</kinematics_scene>
	</library_kinematics_scenes>
	<library_physics_scenes id="pscenes">
		<physics_scene id="pscene" name="URDF Physics Scene">
			<instance_physics_model url="#pmodel0" sid="pmodel0_inst" parent="#visual0">
				<instance_rigid_body body="rigid0" target="#vkmodel0_node0"/>
				<instance_rigid_body body="rigid1" target="#vkmodel0_node1"/>
				<instance_rigid_body body="rigid2" target="#vkmodel0_node2"/>
				<instance_rigid_body body="rigid3" target="#vkmodel0_node3"/>
				<instance_rigid_body body="rigid4" target="#vkmodel0_node4"/>
				<instance_rigid_body body="rigid5" target="#vkmodel0_node5"/>
				<instance_rigid_body body="rigid6" target="#vkmodel0_node6"/>
				<instance_rigid_body body="rigid7" target="#vkmodel0_node7"/>
			</instance_physics_model>
			<technique_common>
				<gravity>0 0 0</gravity>
			</technique_common>
		</physics_scene>
	</library_physics_scenes>
	<library_physics_models id="pmodels">
		<physics_model id="pmodel0" name="lbr_iiwa7_r800">
			<rigid_body sid="rigid0" name="base_link">
				<technique_common>
					<dynamic>true</dynamic>
					<mass>30.2763517543289</mass>
					<mass_frame>
						<translate>-0.012856764088336 7.05371084939836e-07 0.06796555925914689</translate>
						<rotate>-0.9890711269255938 -0.1042571689728429 0.1042532905950883 90.63772234198851</rotate>
					</mass_frame>
					<inertia>0.1102020144463877 0.1340661729117218 0.1390171043978645</inertia>
				</technique_common>
			</rigid_body>
			<rigid_body sid="rigid1" name="link1">
				<technique_common>
					<dynamic>true</dynamic>
					<mass>21.1627406257303</mass>
					<mass_frame>
						<translate>-4.787904418490641e-07 -0.0348192058752328 0.2682978684008052</translate>
						<rotate>0.9999999273819936 0.000376922470724885 5.626240693738984e-05 164.7014575191435</rotate>
					</mass_frame>
					<inertia>0.1333216103543126 0.1336887088995464 0.04068045276063596</inertia>
				</technique_common>
			</rigid_body>
			<rigid_body sid="rigid2" name="link2">
				<technique_common>
					<dynamic>true</dynamic>
					<mass>25.1403147192251</mass>
					<mass_frame>
						<translate>-5.2906167189587e-07 0.02879101510004504 0.4244459627194325</translate>
						<rotate>-0.9999831400200281 -0.005757239201681971 -0.0007575437016503786 14.99221997721094</rotate>
					</mass_frame>
					<inertia>0.1976312422455832 0.1973906151488942 0.05043871543407533</inertia>
				</technique_common>
			</rigid_body>
			<rigid_body sid="rigid3" name="link3">
				<technique_common>
					<dynamic>true</dynamic>
					<mass>21.1627874292289</mass>
					<mass_frame>
						<translate>8.94264666317923e-07 0.03432029119065738 0.6675979478065099</translate>
						<rotate>0.9999978658235629 -0.0002868685454797087 -0.002045985033482073 15.29893389159637</rotate>
					</mass_frame>
					<inertia>0.1333224174130825 0.1336890143125268 0.0406805741871654</inertia>
				</technique_common>
			</rigid_body>
			<rigid_body sid="rigid4" name="link4">
				<technique_common>
					<dynamic>true</dynamic>
					<mass>25.140328983289</mass>
					<mass_frame>
						<translate>9.9343785475714e-08 -0.02928891838345088 0.8237463418510871</translate>
						<rotate>0.9999781902980424 -0.006547019260361368 0.0008691760791728341 14.99189485943512</rotate>
					</mass_frame>
					<inertia>0.1976308405277302 0.1973902290662789 0.05043897553081819</inertia>
				</technique_common>
			</rigid_body>
			<rigid_body sid="rigid5" name="link5">
				<technique_common>
					<dynamic>true</dynamic>
					<mass>9.534669927616051</mass>
					<mass_frame>
						<translate>-1.5059645121912e-07 -0.02981942619400474 1.019866327642296</translate>
						<rotate>0.9999999970974217 -7.448573289807173e-05 -1.603222734474933e-05 150.186771427611</rotate>
					</mass_frame>
					<inertia>0.05290389602071063 0.05451705833378685 0.01396889797584662</inertia>
				</technique_common>
			</rigid_body>
			<rigid_body sid="rigid6" name="link6">
				<technique_common>
					<dynamic>true</dynamic>
					<mass>14.2007599322815</mass>
					<mass_frame>
						<translate>3.09820422451923e-06 0.0003515054462681528 1.13668842167807</translate>
						<rotate>0.9999996154966925 -7.241990367850086e-05 0.0008739346798394065 168.212370938933</rotate>
					</mass_frame>
					<inertia>0.03845158004319234 0.03721366695449534 0.02759990399194172</inertia>
				</technique_common>
			</rigid_body>
			<rigid_body sid="rigid7" name="link7">
				<technique_common>
					<dynamic>true</dynamic>
					<mass>2.47156969383589</mass>
					<mass_frame>
						<translate>5.28878934317328e-07 3.73344536106965e-06 1.234607182228765</translate>
						<rotate>0.989206830117175 -0.1465259262059176 1.410774975468038e-05 179.9988043186195</rotate>
					</mass_frame>
					<inertia>0.001773696960363147 0.001773249637748879 0.002727487107409424</inertia>
				</technique_common>
			</rigid_body>
		</physics_model>
	</library_physics_models>
	<scene>
		<instance_physics_scene url="#pscene"/>
		<instance_visual_scene url="#vscene"/>
		<instance_kinematics_scene url="#kscene">
			<bind_kinematics_model node="visual0/node0">
				<param>kscene_kmodel0_inst</param>
			</bind_kinematics_model>
			<bind_joint_axis target="node1/node_joint1_axis0">
				<axis>
					<param>kscene_kmodel0_inst_robot0_kinematics_kmodel0_inst_joint1_axis0</param>
				</axis>
				<value>
					<param>kscene_kmodel0_inst_robot0_kinematics_kmodel0_inst_joint1_axis0_value</param>
				</value>
			</bind_joint_axis>
			<bind_joint_axis target="node0/node2/node_joint2_axis0">
				<axis>
					<param>kscene_kmodel0_inst_robot0_kinematics_kmodel0_inst_joint2_axis0</param>
				</axis>
				<value>
					<param>kscene_kmodel0_inst_robot0_kinematics_kmodel0_inst_joint2_axis0_value</param>
				</value>
			</bind_joint_axis>
			<bind_joint_axis target="node0/node1/node3/node_joint3_axis0">
				<axis>
					<param>kscene_kmodel0_inst_robot0_kinematics_kmodel0_inst_joint3_axis0</param>
				</axis>
				<value>
					<param>kscene_kmodel0_inst_robot0_kinematics_kmodel0_inst_joint3_axis0_value</param>
				</value>
			</bind_joint_axis>
			<bind_joint_axis target="node0/node1/node2/node4/node_joint4_axis0">
				<axis>
					<param>kscene_kmodel0_inst_robot0_kinematics_kmodel0_inst_joint4_axis0</param>
				</axis>
				<value>
					<param>kscene_kmodel0_inst_robot0_kinematics_kmodel0_inst_joint4_axis0_value</param>
				</value>
			</bind_joint_axis>
			<bind_joint_axis target="node0/node1/node2/node3/node5/node_joint5_axis0">
				<axis>
					<param>kscene_kmodel0_inst_robot0_kinematics_kmodel0_inst_joint5_axis0</param>
				</axis>
				<value>
					<param>kscene_kmodel0_inst_robot0_kinematics_kmodel0_inst_joint5_axis0_value</param>
				</value>
			</bind_joint_axis>
			<bind_joint_axis target="node0/node1/node2/node3/node4/node6/node_joint6_axis0">
				<axis>
					<param>kscene_kmodel0_inst_robot0_kinematics_kmodel0_inst_joint6_axis0</param>
				</axis>
				<value>
					<param>kscene_kmodel0_inst_robot0_kinematics_kmodel0_inst_joint6_axis0_value</param>
				</value>
			</bind_joint_axis>
			<bind_joint_axis target="node0/node1/node2/node3/node4/node5/node7/node_joint7_axis0">
				<axis>
					<param>kscene_kmodel0_inst_robot0_kinematics_kmodel0_inst_joint7_axis0</param>
				</axis>
				<value>
					<param>kscene_kmodel0_inst_robot0_kinematics_kmodel0_inst_joint7_axis0_value</param>
				</value>
			</bind_joint_axis>
		</instance_kinematics_scene>
	</scene>
	<extra id="sensors" type="library_sensors">
		<technique profile="OpenRAVE"/>
	</extra>
</COLLADA>
